<?xml version="1.0" encoding="utf-8"?>
<!-- Generator: Adobe Illustrator 16.0.0, SVG Export Plug-In . SVG Version: 6.00 Build 0)  -->
<!DOCTYPE svg PUBLIC "-//W3C//DTD SVG 1.1//EN" "http://www.w3.org/Graphics/SVG/1.1/DTD/svg11.dtd">
<svg version="1.1" id="Layer_1" xmlns="http://www.w3.org/2000/svg" xmlns:xlink="http://www.w3.org/1999/xlink" x="0px" y="0px"
	 width="11.965px" height="6.818px" viewBox="0 0 11.965 6.818" enable-background="new 0 0 11.965 6.818" xml:space="preserve">
<polyline fill="none" stroke-width="2" stroke="#21955F" stroke-miterlimit="10" points="11.604,0.354 6.104,6.104 0.354,0.354 "/>
</svg>
